<svg xmlns="http://www.w3.org/2000/svg" 
    xmlns:xlink="http://www.w3.org/1999/xlink" width="87" height="28" viewBox="0 0 87 28">
    <defs>
        <path id="a" d="M0 28h87V0H0z"/>
    </defs>
    <g fill="none" fill-rule="evenodd">
        <path fill="#fff" d="M26 27h-5.22V15.542c0-2.664-1.747-3.526-2.986-3.526-1.769 0-3.52.98-3.52 4.158V27H9V7.478h5.218v1.951C15.086 8.272 16.727 7 18.845 7 23.245 7 26 9.678 26 14.273V27z"/>
        <mask id="b" fill="#fff">
            <use xlink:href="#a"/>
        </mask>
        <path fill="#fff" d="M0 5h5V0H0zM43 5h5V0h-5zM.014 8H5v14.87C5 25.65 3.224 28 0 28v-2.918c1.324-.205 2.257-.835 2.257-2.157v-1.599H.014V8zM31.063 12.237H28v-4.51h3.057V3h4.871v4.736H39v4.515h-3.063v6.85c0 1.927.38 2.759 2.453 2.759h.607V27h-1.47c-5.116 0-6.464-2.291-6.464-6.873v-7.89zM43 28h5V8h-5zM50 8h5.147l3.842 12.868h.06L62.851 8H68l-6.418 20h-5.136zM86.375 22.205C83.981 25.887 81.255 27 77.666 27 72.441 27 68 22.863 68 17.01 68 11.937 71.807 7 77.464 7 83.186 7 87 10.705 87 17.01v1.316H73.034c.312 2.526 2.562 3.87 4.485 3.87 1.931 0 3.158-.568 4.459-1.939l4.397 1.948zm-4.443-7.781c-.345-1.636-1.908-3.21-4.413-3.21-2.363 0-4.131 1.686-4.424 3.21h8.837z" mask="url(#b)"/>
    </g>
</svg>
