// Jest Snapshot v1, https://goo.gl/fbAQLP

exports[`CheckpointForm should match snapshot 1`] = `"<WithFormik(InjectIntl(CheckpointForm)) submit={[Function: mockConstructor]} initialValues={{...}} classes={{...}} />"`;
