// Jest Snapshot v1, https://goo.gl/fbAQLP

exports[`Button component should match snapshot 1`] = `
"<MuiThemeProviderOld theme={{...}}>
  <WithStyles(Button) variant=\\"contained\\" size=\\"large\\" className={[undefined]} />
</MuiThemeProviderOld>"
`;
