// Jest Snapshot v1, https://goo.gl/fbAQLP

exports[`DroppableColumn should match snapshot. 1`] = `
"<div className={[undefined]}>
  <div className={[undefined]}>
    <WithStyles(Typography) className={[undefined]} />
  </div>
  <CheckpointList classes={{...}} snapshot={{...}} provided={{...}} innerRef={[undefined]}>
    <ScrollBar className=\\"\\" style={[undefined]} option={[undefined]} options={[undefined]} containerRef={[Function: containerRef]} onScrollY={[undefined]} onScrollX={[undefined]} onScrollUp={[undefined]} onScrollDown={[undefined]} onScrollLeft={[undefined]} onScrollRight={[undefined]} onYReachStart={[undefined]} onYReachEnd={[undefined]} onXReachStart={[undefined]} onXReachEnd={[undefined]} component=\\"div\\">
      <WithStyles(CheckpointElement) checkpoint={{...}} index={0} onElementDelete={[undefined]} onElementAdd={[undefined]} haveDelete={false} onCenterClick={[undefined]} selectedCheckpoint={[undefined]} />
      <WithStyles(CheckpointElement) checkpoint={{...}} index={1} onElementDelete={[undefined]} onElementAdd={[undefined]} haveDelete={false} onCenterClick={[undefined]} selectedCheckpoint={[undefined]} />
      <WithStyles(CheckpointElement) checkpoint={{...}} index={2} onElementDelete={[undefined]} onElementAdd={[undefined]} haveDelete={false} onCenterClick={[undefined]} selectedCheckpoint={[undefined]} />
      <WithStyles(CheckpointElement) checkpoint={{...}} index={3} onElementDelete={[undefined]} onElementAdd={[undefined]} haveDelete={false} onCenterClick={[undefined]} selectedCheckpoint={[undefined]} />
      <WithStyles(CheckpointElement) checkpoint={{...}} index={4} onElementDelete={[undefined]} onElementAdd={[undefined]} haveDelete={false} onCenterClick={[undefined]} selectedCheckpoint={[undefined]} />
      <WithStyles(CheckpointElement) checkpoint={{...}} index={5} onElementDelete={[undefined]} onElementAdd={[undefined]} haveDelete={false} onCenterClick={[undefined]} selectedCheckpoint={[undefined]} />
      <WithStyles(CheckpointElement) checkpoint={{...}} index={6} onElementDelete={[undefined]} onElementAdd={[undefined]} haveDelete={false} onCenterClick={[undefined]} selectedCheckpoint={[undefined]} />
      <WithStyles(CheckpointElement) checkpoint={{...}} index={7} onElementDelete={[undefined]} onElementAdd={[undefined]} haveDelete={false} onCenterClick={[undefined]} selectedCheckpoint={[undefined]} />
      <WithStyles(CheckpointElement) checkpoint={{...}} index={8} onElementDelete={[undefined]} onElementAdd={[undefined]} haveDelete={false} onCenterClick={[undefined]} selectedCheckpoint={[undefined]} />
      <WithStyles(CheckpointElement) checkpoint={{...}} index={9} onElementDelete={[undefined]} onElementAdd={[undefined]} haveDelete={false} onCenterClick={[undefined]} selectedCheckpoint={[undefined]} />
      <WithStyles(CheckpointElement) checkpoint={{...}} index={10} onElementDelete={[undefined]} onElementAdd={[undefined]} haveDelete={false} onCenterClick={[undefined]} selectedCheckpoint={[undefined]} />
    </ScrollBar>
  </CheckpointList>
</div>"
`;
